{
  "forge_marker": 1,
  "defaults": {
    "model": "disenchanter:block/disenchanttable"
  },
  "variants": {
    "automatic=false,bulkdisenchantment=false,voiding=false": [{ "textures": { } }],
    "automatic=true,bulkdisenchantment=true,voiding=true": [{ "textures": { "side": "disenchanter:block/disenchanttable_side_automatic", "top": "disenchanter:block/disenchanttable_top_bulk", "bottom": "disenchanter:block/disenchanttable_bottom_voiding" } }],
    "automatic=true,bulkdisenchantment=false,voiding=false": [{ "textures": { "side": "disenchanter:block/disenchanttable_side_automatic" } }],
    "automatic=false,bulkdisenchantment=true,voiding=false": [{ "textures": { "top": "disenchanter:block/disenchanttable_top_bulk" } }],
    "automatic=false,bulkdisenchantment=false,voiding=true": [{ "textures": { "bottom": "disenchanter:block/disenchanttable_bottom_voiding" } }],
    "automatic=true,bulkdisenchantment=true,voiding=false": [{ "textures": { "side": "disenchanter:block/disenchanttable_side_automatic", "top": "disenchanter:block/disenchanttable_top_bulk"} }],
    "automatic=true,bulkdisenchantment=false,voiding=true": [{ "textures": { "side": "disenchanter:block/disenchanttable_side_automatic", "bottom": "disenchanter:block/disenchanttable_bottom_voiding" } }],
    "automatic=false,bulkdisenchantment=true,voiding=true": [{ "textures": { "top": "disenchanter:block/disenchanttable_top_bulk", "bottom": "disenchanter:block/disenchanttable_bottom_voiding" } }]
  }
}